%YAML 1.1
%TAG !u! tag:unity3d.com,2011:
--- !u!114 &11400000
MonoBehaviour:
  m_ObjectHideFlags: 0
  m_PrefabParentObject: {fileID: 0}
  m_PrefabInternal: {fileID: 0}
  m_GameObject: {fileID: 0}
  m_Enabled: 1
  m_EditorHideFlags: 0
  m_Script: {fileID: 11500000, guid: 73f997a1a3c465c4cada9569739eca62, type: 3}
  m_Name: MenAnimation
  m_EditorClassIdentifier: 
  idleDown:
  - {fileID: 21300000, guid: 9e16ea9811c225b41ace8269c38c4465, type: 3}
  - {fileID: 21300000, guid: c55ecf57f5b060a499f9e613c95c2a9d, type: 3}
  - {fileID: 21300000, guid: d3319ffa24b89854faa6a25a4fda4d61, type: 3}
  - {fileID: 21300000, guid: cd852b89c1d8fb647a9e93f4ae80686c, type: 3}
  - {fileID: 21300000, guid: 5358c276af697e64a9e7f66a9e75b979, type: 3}
  idleUp:
  - {fileID: 21300000, guid: 34321535452634446af4a5b8b1adbea6, type: 3}
  - {fileID: 21300000, guid: 8fd83c802bc25d54bb9cfc0396464092, type: 3}
  - {fileID: 21300000, guid: 8fb18badce0b0bd41bda67cc590e741b, type: 3}
  - {fileID: 21300000, guid: f3b6c21c82c73e042b7af25977fe1ad0, type: 3}
  - {fileID: 21300000, guid: 91b47f63c43b25742a2dea8eb0c6f3a7, type: 3}
  idleSide:
  - {fileID: 21300000, guid: 04d03c319c2ca1e4fa45f62b64d62aa9, type: 3}
  - {fileID: 21300000, guid: 86a6ad2cabd278d4f8bb1b7fec6043f3, type: 3}
  - {fileID: 21300000, guid: 731c73a47830087489ac8e6d3040d1e2, type: 3}
  - {fileID: 21300000, guid: 4ae056f4a399e144293d43abd45065b4, type: 3}
  - {fileID: 21300000, guid: fb2605d7cb836024bb934d68accfcdad, type: 3}
  moveDown:
  - {fileID: 21300000, guid: 9e22f3e4b9b9e9d4182eaf6019fb64e5, type: 3}
  - {fileID: 21300000, guid: f5b89856e111c114e91398595410b8bd, type: 3}
  - {fileID: 21300000, guid: 7bba4eebca69b514eb3cb5663060449c, type: 3}
  - {fileID: 21300000, guid: f5b89856e111c114e91398595410b8bd, type: 3}
  moveUp:
  - {fileID: 21300000, guid: 975b6704a2820b4468bb56aaa3d0519c, type: 3}
  - {fileID: 21300000, guid: adff655dc557f6243a8f8a92fa64f0dd, type: 3}
  - {fileID: 21300000, guid: dcbbe1345a67ad44c840bafe90412d34, type: 3}
  - {fileID: 21300000, guid: adff655dc557f6243a8f8a92fa64f0dd, type: 3}
  moveSide:
  - {fileID: 21300000, guid: 76339d086250ce94187a768fecfc5853, type: 3}
  - {fileID: 21300000, guid: d3812173fce3f82458307a3804bbdc7b, type: 3}
  - {fileID: 21300000, guid: 1d454a2b35da1ab41b27da35e40d0e6b, type: 3}
  - {fileID: 21300000, guid: d3812173fce3f82458307a3804bbdc7b, type: 3}
